﻿Bilenkokia parduotuve
Bilenkokia gatve 55
86654335
Gamintojas;Pavadinimas;Metalas;Svoris;Dydis;Praba;Kaina;
Brasco juvelyrika;Bra001;Geltonas auksas;1,24;585;339,00;60,5;
Brasco juvelyrika;Bra002;Baltas auksas;2,22;585;298,00;1;
Brasco juvelyrika;Bra003;Baltas auksas;1,74;585;194,00;2;
Brasco juvelyrika;Bra004;Baltas auksas;1,07;585;219,00;3;
Aukso gaminiai;Auga001;Geltonas auksas;2,61;585;690,60;15,5;