﻿Informatikos fakultetas
Pavardenis;Vardenis;IFF-6/10;1;10;
Pavadenis;Vardenis;IFF-6/11;1;10
Pavardenis;Vardenis;IFF-6/15;2;6,7;
Pavardenis;Vardenis;IFF-6/12;4;9,9,9,9;
Pavardenis;Vardenis;IFF-6/13;4;10,10,10,10;
Pavardenis;Vardenis;IFF-6/6;3;6,7,8;