﻿Bilenkoks shopas
Kazkokia gatve 55
86654474
Gamintojas;Pavadinimas;Metalas;Svoris;Dydis;Praba;Kaina;
Brasco juvelyrika;Bra001;Geltonas auksas;1,24;17,5;585;339,00
Aukso gaminiai;Auga001;Geltonas auksas;2,61;17,5;585;690,60
Aukso gaminiai;Auga002;Geltonas auksas;1,50;15,5;750;550,00
Kamėja;Kam001;Raudonas auksas;1,70;16,6;875;425,00
Kamėja;Kam002;Geltonas auksas;1,15;12,5;585;250,00
Kamėja;Kam003;Baltas auksas;1,75;13,0;375;225,00
Victoria's rings;Vic002;Baltas auksas;1,90;18,5;750;400,00
Victoria's rings;Vic003;Geltonas auksas;1,75;17,5;585;310,00
Aukso gaminiai;Auga003;Baltas auksas;1,65;16,0;333;125,00
Victoria's rings;Vic006;Baltas auksas;1,57;14,5;375;320,00